{"help": "https://data.gov.il/api/3/action/help_show?name=datastore_search", "success": true, "result": {"include_total": true, "limit": 1, "records_format": "objects", "resource_id": "bb2355dc-9ec7-4f06-9c3f-3344672171da", "total_estimation_threshold": null, "records": [{"_id":1,"mispar_rechev":11111111,"baalut_dt":202202,"baalut":"פרטי"}], "fields": [{"id": "_id", "type": "int"}, {"id": "mispar_rechev", "type": "numeric"}, {"id": "baalut_dt", "type": "numeric"}, {"id": "baalut", "type": "text"}], "_links": {"start": "/api/3/action/datastore_search?resource_id=bb2355dc-9ec7-4f06-9c3f-3344672171da&limit=1", "next": "/api/3/action/datastore_search?resource_id=bb2355dc-9ec7-4f06-9c3f-3344672171da&limit=1&offset=1"}, "total": 4862808, "total_was_estimated": false}}